<svg width="15" height="15" viewBox="0 0 15 15" fill="none" xmlns="http://www.w3.org/2000/svg">
<path d="M12.1875 1.25001C12.3601 1.25001 12.5 1.1101 12.5 0.937502C12.5 0.764908 12.3601 0.624992 12.1875 0.624992C12.0149 0.624992 11.875 0.764908 11.875 0.937502C11.875 1.1101 12.0149 1.25001 12.1875 1.25001Z" fill="#448D2F"/>
<path d="M10.6251 1.24998C10.9702 1.24998 11.25 0.970163 11.25 0.62499C11.25 0.279818 10.9702 0 10.6251 0C10.2799 0 10.0001 0.279818 10.0001 0.62499C10.0001 0.970163 10.2799 1.24998 10.6251 1.24998Z" fill="#448D2F"/>
<path d="M13.125 3.92276V2.19665C13.125 2.02392 12.9852 1.88414 12.8125 1.88414H11.5625C11.3897 1.88414 11.25 2.02392 11.25 2.19665V3.75H2.8125C1.26158 3.75 0 5.01161 0 6.56249V7.6001C0 9.61273 1.63726 11.25 3.64989 11.25C4.7598 11.25 5.81604 10.7901 6.62537 9.95422C7.06605 9.49613 7.39014 9.37499 7.5 9.37499C7.60986 9.37499 7.93397 9.49613 8.37524 9.95483C9.15946 10.7648 10.177 11.2179 11.25 11.2448V12.1875C11.25 12.7045 10.8295 13.125 10.3125 13.125H8.75001C8.5776 13.125 8.4375 12.9849 8.4375 12.8125V12.5C8.95447 12.5 9.375 12.0794 9.375 11.5625C9.375 11.0455 8.95447 10.625 8.4375 10.625H6.5625C6.04553 10.625 5.625 11.0455 5.625 11.5625C5.625 12.0794 6.04553 12.5 6.5625 12.5V12.8125C6.5625 14.0185 7.54395 15 8.75001 15H10.3125C11.8634 15 13.125 13.7384 13.125 12.1875V10.7866C14.2421 10.1618 15 8.9685 15 7.60007V6.56249C15 5.3419 14.2139 4.31103 13.125 3.92276ZM13.75 7.6001C13.75 8.92335 12.6736 10 11.3504 10.0003C10.5807 10.0003 9.84404 9.67619 9.27642 9.08753C8.67826 8.46711 8.04718 8.12531 7.5 8.12531C6.95312 8.12531 6.32232 8.46679 5.72388 9.08721C5.15596 9.6759 4.41987 10.0003 3.65083 10.0003C2.32696 10 1.25001 8.92335 1.25001 7.6001V6.56249C1.25001 5.70099 1.951 5.00001 2.8125 5.00001H12.1875C13.049 5.00001 13.75 5.70099 13.75 6.56249V7.6001Z" fill="#448D2F"/>
</svg>
