<svg width="15" height="15" viewBox="0 0 15 15" fill="none" xmlns="http://www.w3.org/2000/svg">
<path d="M12.1239 9.42384C12.0481 9.50598 11.9698 9.58813 11.8883 9.66996C11.9585 9.58031 12.0375 9.49787 12.1239 9.42384Z" fill="#448D2F"/>
<path d="M12.6818 5.97389C12.6986 8.07017 10.3147 9.91898 8.49922 10.9847C7.92427 11.322 7.52618 11.51 7.52618 11.51C7.52618 11.51 6.5728 11.0784 5.47906 10.3428C6.45843 8.4411 4.49568 6.57222 2.72406 7.4835C2.69442 7.46882 2.66418 7.45476 2.6336 7.44164C2.27486 6.71241 2.16411 5.92397 2.4308 5.14927L2.63732 5.24297C2.9798 5.08139 3.71433 4.76086 4.53532 4.12693C4.88035 3.8605 5.17267 3.58781 5.41165 3.30952C6.29577 3.42134 7.05104 3.9464 7.47189 4.68448C7.94208 3.82799 8.8652 3.23443 9.95733 3.24923C11.457 3.27401 12.6701 4.47958 12.6818 5.97389Z" fill="#448D2F"/>
<path d="M4.73933 9.30176C4.7488 10.491 2.75567 11.4319 2.75567 11.4319C2.75567 11.4319 2.25373 11.2046 1.75058 10.8287C1.26701 10.4675 0.743211 9.93949 0.738406 9.33363C0.733778 8.74975 1.2076 8.27273 1.7969 8.26802C2.19865 8.26482 2.55027 8.48191 2.73478 8.80565C2.91918 8.46979 3.27889 8.2471 3.69109 8.25334C4.26921 8.26304 4.73476 8.72789 4.73933 9.30176Z" fill="#448D2F"/>
<path d="M5.21403 1.36638C5.22636 2.91606 2.62917 4.14214 2.62917 4.14214C2.62917 4.14214 1.97508 3.84601 1.31948 3.35616C0.689331 2.88548 0.0068021 2.19741 0.000532573 1.40792C-0.00553188 0.64708 0.611929 0.0254885 1.37983 0.0193655C1.90336 0.0152053 2.36154 0.298096 2.60195 0.719942C2.84221 0.282305 3.31093 -0.00788061 3.84809 0.000234627C4.60143 0.0128616 5.20808 0.618604 5.21403 1.36638Z" fill="#448D2F"/>
<path d="M14.9999 10.7107C15.0152 12.6479 11.7689 14.1803 11.7689 14.1803C10.8082 13.7454 9.4742 12.8557 8.87042 11.9245C9.83526 11.3755 10.8885 10.6332 11.704 9.85113C11.7146 9.86801 11.7249 9.88517 11.7349 9.90266C12.0446 9.33844 12.6489 8.98936 13.2926 9.00308C14.2339 9.01898 14.9926 9.77625 14.9999 10.7107Z" fill="#448D2F"/>
<path d="M14.9722 0.831974C14.9796 1.76675 13.4811 2.50582 13.4811 2.50582C13.4811 2.50582 13.1036 2.32705 12.7251 2.03145C11.3933 0.991408 12.0789 0.0240842 12.7593 0.0186642C13.0614 0.0162619 13.3259 0.187004 13.4647 0.441506C13.6028 0.178391 13.8728 0.00260956 14.1836 0.00761932C14.6159 0.0153244 14.9686 0.378312 14.9722 0.831974Z" fill="#448D2F"/>
<path d="M5.98819 13.4887C5.9949 14.3321 4.5067 14.9999 4.5067 14.9999C4.5067 14.9999 4.13205 14.8389 3.75655 14.5725C1.93434 13.2799 3.89044 12.1346 4.49188 13.1375C4.88413 12.4592 5.98207 12.7182 5.98819 13.4887Z" fill="#448D2F"/>
</svg>
