<svg width="15" height="15" viewBox="0 0 15 15" fill="none" xmlns="http://www.w3.org/2000/svg">
<path d="M14.4141 6.97266C14.7377 6.97266 15 6.71036 15 6.38672V0.585938C15 0.262299 14.7377 0 14.4141 0C14.0904 0 13.8281 0.262299 13.8281 0.585938V4.16817C13.5672 4.21268 12.9988 4.3055 12.2439 4.4038C12.0368 4.07284 11.6692 3.85254 11.25 3.85254C10.7419 3.85254 10.3094 4.17595 10.1469 4.62822C9.61922 4.67182 9.06509 4.70695 8.50388 4.72733C8.29868 4.38744 7.92595 4.16016 7.5 4.16016C7.07405 4.16016 6.7012 4.38744 6.49612 4.72733C5.95688 4.70787 5.4237 4.67468 4.91341 4.6336C4.7525 4.17858 4.31866 3.85254 3.80859 3.85254C3.38562 3.85254 3.01495 4.07673 2.80895 4.41273C2.04128 4.31442 1.45512 4.22047 1.17188 4.17286V0.585938C1.17188 0.262299 0.909576 0 0.585938 0C0.262299 0 0 0.262299 0 0.585938V14.3848C0 14.7084 0.262299 14.9707 0.585938 14.9707C0.909576 14.9707 1.17188 14.7084 1.17188 14.3848V10.039C2.39754 10.2348 5.04272 10.6055 7.5 10.6055C9.80667 10.6055 12.2649 10.2789 13.5648 10.0769L13.8281 10.0351V14.3848C13.8281 14.7084 14.0904 14.9707 14.4141 14.9707C14.7377 14.9707 15 14.7084 15 14.3848V9.375C15 9.20631 14.9284 9.05479 14.8144 8.94791C14.6824 8.80554 14.4831 8.7315 14.278 8.76961C14.2707 8.77098 14.1159 8.79936 13.8477 8.84365L12.1589 5.76393C12.2048 5.70763 12.2456 5.64709 12.2805 5.58266C12.9546 5.49625 13.4943 5.41225 13.8281 5.35698V6.38672C13.8281 6.71036 14.0904 6.97266 14.4141 6.97266ZM3.65936 6.80523L4.47052 9.27544C3.72597 9.20528 3.03131 9.12071 2.44595 9.04095L3.65936 6.80523ZM4.59366 5.89428C4.62879 5.86258 4.66187 5.82859 4.69288 5.79288C5.26222 5.84015 5.86338 5.87826 6.47472 5.89943C6.49292 5.93239 6.51272 5.9642 6.53389 5.9951L5.40367 8.36094L4.59366 5.89428ZM8.52528 5.89943C9.15699 5.87746 9.7768 5.8374 10.3613 5.78785C10.386 5.81646 10.4119 5.84393 10.4392 5.87002L9.54208 8.37936L8.45547 6.00998C8.48076 5.9745 8.5041 5.93777 8.52528 5.89943ZM2.78378 5.59284C2.81616 5.65098 2.85324 5.70602 2.89467 5.75752L1.21204 8.85761C1.19843 8.85544 1.18504 8.85315 1.17188 8.85109V5.36121C1.52332 5.41878 2.08614 5.50507 2.78378 5.59284ZM6.20567 9.40075L7.48913 6.71402L8.7228 9.40407C8.31379 9.42284 7.9034 9.43359 7.5 9.43359C7.07348 9.43359 6.63883 9.42158 6.20567 9.40075ZM10.4642 9.28093L11.3667 6.75659L12.6137 9.0303C12.0012 9.11522 11.2609 9.20666 10.4642 9.28093Z" fill="#448D2F"/>
</svg>
