{
    "/js/app.js": "/js/app.js",
    "/js/front.js": "/js/front.js",
    "/js/admin.js": "/js/admin.js",
    "/css/admin.css": "/css/admin.css",
    "/css/front.css": "/css/front.css",
    "/css/app.css": "/css/app.css"
}
