<svg width="15" height="15" viewBox="0 0 15 15" fill="none" xmlns="http://www.w3.org/2000/svg">
<g clip-path="url(#clip0)">
<path d="M14.7808 2.1025L10.2067 2.30084C10.1675 2.30245 10.1383 2.30032 10.1237 2.29924L10.103 2.28465C10.0633 2.25628 9.98187 2.25309 9.92033 2.25576L9.09303 2.29208C8.996 2.2958 8.87189 2.35225 8.80506 2.42308L8.74885 2.48275C8.70088 2.53338 8.60701 2.60179 8.54415 2.63229L8.06685 2.86325C8.02495 2.88447 7.96691 2.91389 7.92021 2.92714L7.88921 2.93244C7.88522 2.93296 7.88048 2.93457 7.87673 2.93457C7.81232 2.93349 7.73595 2.90568 7.65534 2.85263C7.58058 2.80278 7.45197 2.76248 7.35201 2.7792L5.54599 3.08415C5.38716 3.11146 5.27156 3.24326 5.24793 3.39729L4.2329 3.57576C4.11887 3.5129 3.98974 3.47366 3.85026 3.47366H2.41066C1.97128 3.47366 1.61516 3.83004 1.61516 4.26916V7.96949L0.0289785 13.749C-0.0871522 14.1727 0.16183 14.6102 0.585563 14.7264C0.656079 14.746 0.7269 14.7553 0.796639 14.7553C1.14586 14.7553 1.46617 14.5232 1.56322 14.17L2.99908 8.93867H3.247L4.57732 14.156C4.66908 14.5153 4.99257 14.7553 5.34762 14.7553C5.41259 14.7553 5.47886 14.747 5.54463 14.7303C5.97047 14.6216 6.22742 14.1886 6.11897 13.763L4.64573 7.98458V5.11899L8.33837 4.46934C8.77112 4.39323 9.06042 3.98092 8.98433 3.54792C8.9769 3.50497 8.96337 3.46412 8.94931 3.42433C8.95488 3.41718 8.96522 3.41346 8.96972 3.4055C9.01719 3.42061 9.06754 3.4283 9.11929 3.42619C9.21792 3.42195 9.30993 3.38534 9.37836 3.32251C9.44993 3.25673 9.48759 3.17083 9.48335 3.08068C9.48257 3.06557 9.47913 3.05126 9.47567 3.03667L10.0954 2.94916L14.7225 2.5965C14.8481 2.58723 14.9306 2.53019 14.9272 2.45463C14.9261 2.43076 14.9181 2.40849 14.9046 2.38938C14.9646 2.3626 15.003 2.30797 15.0004 2.24647C14.9966 2.16189 14.8966 2.0972 14.7808 2.1025ZM9.28181 3.2175C9.23808 3.25782 9.17816 3.28114 9.11263 3.28432C9.06782 3.28591 9.0267 3.27398 8.98935 3.25673C8.98455 3.2371 8.98034 3.2175 8.96944 3.1992L8.92704 3.12679C8.97687 3.11221 9.02911 3.09976 9.06838 3.09418L9.33591 3.05628C9.33857 3.06609 9.34068 3.07644 9.34096 3.08678C9.34306 3.1345 9.32238 3.18064 9.28181 3.2175Z" fill="#448D2F"/>
<path d="M3.12983 2.82798C3.84317 2.82798 4.42144 2.24971 4.42144 1.53637C4.42144 0.823038 3.84317 0.244766 3.12983 0.244766C2.4165 0.244766 1.83823 0.823038 1.83823 1.53637C1.83823 2.24971 2.4165 2.82798 3.12983 2.82798Z" fill="#448D2F"/>
</g>
<defs>
<clipPath id="clip0">
<rect width="15" height="15" fill="white"/>
</clipPath>
</defs>
</svg>
