<svg width="15" height="15" viewBox="0 0 15 15" fill="none" xmlns="http://www.w3.org/2000/svg">
<path d="M10.4004 5.33203H8.56934V4.39453H6.37207V5.33203H0.439453C0.196758 5.33203 0 5.52879 0 5.77148V6.65039C0 6.89309 0.196758 7.08984 0.439453 7.08984H4.2823C4.97692 7.08984 5.59125 7.53261 5.81095 8.19158L6.02965 8.84766H7.4707C7.7134 8.84766 7.91016 9.04441 7.91016 9.28711V11.6309C7.91016 11.8736 8.10691 12.0703 8.34961 12.0703H9.22852C9.47121 12.0703 9.66797 11.8736 9.66797 11.6309V7.50794L10.4004 7.1417V5.33203Z" fill="#448D2F"/>
<path d="M14.5605 4.16016C14.3179 4.16016 14.1211 4.35691 14.1211 4.59961V5.33203H11.2793V7.08984H14.5605C14.8032 7.08984 15 6.89309 15 6.65039V5.77148V4.59961C15 4.35691 14.8032 4.16016 14.5605 4.16016Z" fill="#448D2F"/>
<path d="M5.27334 10.459C5.27334 10.7013 5.0762 10.8984 4.83389 10.8984H3.83896L4.03429 9.72656H0.799501L0.0342963 14.3177C-0.0252057 14.6749 0.250185 15 0.612265 15H2.659C2.94544 15 3.18989 14.7929 3.23697 14.5104L3.69248 11.7773H4.83389C5.56083 11.7773 6.15225 11.1859 6.15225 10.459V9.72656H5.27334V10.459Z" fill="#448D2F"/>
<path d="M4.6875 3.51562H10.2539C11.2247 3.51562 12.0117 2.72862 12.0117 1.75781C12.0117 0.787002 11.2247 0 10.2539 0H4.6875C3.71669 0 2.92969 0.787002 2.92969 1.75781C2.92969 2.72862 3.71669 3.51562 4.6875 3.51562Z" fill="#448D2F"/>
<path d="M4.97716 8.46955C4.87731 8.17002 4.59806 7.96875 4.2823 7.96875H0.878906V8.84766H5.10319L4.97716 8.46955Z" fill="#448D2F"/>
<path d="M13.6084 15C14.377 15 15 14.377 15 13.6084C15 12.8398 14.377 12.2168 13.6084 12.2168C12.8398 12.2168 12.2168 12.8398 12.2168 13.6084C12.2168 14.377 12.8398 15 13.6084 15Z" fill="#448D2F"/>
<path d="M11.1182 12.2168C10.3508 12.2168 9.72656 12.8411 9.72656 13.6084C9.72656 14.3757 10.3508 15 11.1182 15C11.329 15 11.5326 14.9509 11.7165 14.8619C11.4775 14.5024 11.3379 14.0715 11.3379 13.6084C11.3379 13.1453 11.4775 12.7144 11.7165 12.3549C11.5326 12.2659 11.329 12.2168 11.1182 12.2168Z" fill="#448D2F"/>
</svg>
