<svg width="15" height="15" viewBox="0 0 15 15" fill="none" xmlns="http://www.w3.org/2000/svg">
<g clip-path="url(#clip0)">
<path d="M10.0308 7.94975C9.35578 6.89678 8.20622 6.26804 6.95561 6.26804C5.705 6.26804 4.55544 6.89678 3.88058 7.94975L2.25415 10.487C1.98429 10.9079 1.85978 11.3943 1.894 11.8932C1.92822 12.3921 2.11808 12.8568 2.44297 13.2372C2.7681 13.6172 3.19771 13.877 3.68534 13.9885C4.17298 14.0999 4.67285 14.0523 5.13085 13.851L5.16152 13.8374C6.31394 13.341 7.63081 13.3455 8.78025 13.851C9.07677 13.9814 9.39091 14.0473 9.70791 14.0473C9.88026 14.0473 10.0536 14.0277 10.2254 13.9886C10.713 13.8772 11.1427 13.6174 11.4679 13.2373C11.7929 12.8572 11.9829 12.3925 12.0172 11.8934C12.0515 11.3943 11.927 10.9081 11.6572 10.4869L10.0308 7.94975Z" fill="#448D2F"/>
<path d="M2.6922 7.94644C3.17606 7.76059 3.54365 7.37069 3.72721 6.8485C3.90196 6.35159 3.88765 5.7906 3.68681 5.26875C3.48585 4.74725 3.12033 4.32153 2.65753 4.06987C2.17138 3.80563 1.63729 3.7626 1.15423 3.94879C0.182401 4.32244 -0.263576 5.52338 0.160199 6.62648C0.498715 7.50447 1.28824 8.05871 2.08647 8.05871C2.29029 8.05871 2.49468 8.02255 2.6922 7.94644Z" fill="#448D2F"/>
<path d="M5.84804 5.9586C7.06294 5.9586 8.05137 4.8325 8.05137 3.44834C8.05137 2.06383 7.06294 0.937504 5.84804 0.937504C4.63325 0.937504 3.64494 2.06383 3.64494 3.44834C3.64494 4.8325 4.63325 5.9586 5.84804 5.9586Z" fill="#448D2F"/>
<path d="M9.6532 6.57531H9.65331C9.8402 6.63734 10.0309 6.66698 10.2207 6.66698C11.1067 6.66698 11.9702 6.0221 12.2996 5.03104C12.4894 4.46056 12.4769 3.85734 12.2645 3.33263C12.0423 2.78331 11.6304 2.3846 11.1047 2.20985C10.5788 2.0351 10.0101 2.10799 9.50328 2.41492C9.01908 2.70812 8.64806 3.18385 8.45855 3.75434C8.05858 4.9578 8.59451 6.22329 9.6532 6.57531Z" fill="#448D2F"/>
<path d="M14.2932 6.28237L14.2929 6.28202C13.455 5.66313 12.202 5.93138 11.4995 6.88032C10.7976 7.82972 10.9074 9.10608 11.7439 9.72544C12.049 9.95146 12.4095 10.0595 12.7785 10.0595C13.4215 10.0595 14.0905 9.73127 14.5378 9.12771C15.2395 8.17831 15.1299 6.90195 14.2932 6.28237Z" fill="#448D2F"/>
</g>
<defs>
<clipPath id="clip0">
<rect width="15" height="15" fill="white"/>
</clipPath>
</defs>
</svg>
