<svg width="15" height="15" viewBox="0 0 15 15" fill="none" xmlns="http://www.w3.org/2000/svg">
<g clip-path="url(#clip0)">
<path d="M14.5597 7.97184H14.0981C13.897 4.94377 11.6475 2.46018 8.72236 1.92273C8.80096 1.75401 8.84801 1.51617 8.84801 1.31807C8.84801 0.591271 8.25674 0 7.52994 0C6.80315 0 6.21188 0.591271 6.21188 1.31807C6.21188 1.51617 6.25893 1.75401 6.33753 1.92273C3.41244 2.46018 1.10434 4.94374 0.903302 7.97184H0.44167C0.198828 7.97184 0.00230408 8.15665 0.00230408 8.39949C0.00230408 8.64233 0.198799 8.83885 0.44167 8.83885H14.5597C14.8025 8.83885 14.999 8.64233 14.999 8.39949C14.999 8.15665 14.8025 7.97184 14.5597 7.97184ZM7.52994 1.80914C7.28754 1.80914 7.09058 1.5605 7.09058 1.31807C7.09058 1.07564 7.28754 0.878703 7.52994 0.878703C7.77235 0.878703 7.96931 1.07564 7.96931 1.31807C7.96931 1.5605 7.77238 1.80914 7.52994 1.80914Z" fill="#448D2F"/>
<path d="M1.31974 10.5963C1.07368 10.5963 0.880375 10.7896 0.880375 11.0356V14.5573C0.880375 14.8033 1.07368 14.9967 1.31974 14.9967H2.63781V10.5963H1.31974Z" fill="#448D2F"/>
<path d="M13.6288 10.2201C13.2855 9.87689 12.7295 9.87689 12.3862 10.2201L9.87025 12.7244C9.55504 13.0396 9.14029 13.2148 8.69758 13.2324H7.49418C7.25321 13.2324 7.05482 13.0531 7.05482 12.793C7.05482 12.5329 7.25318 12.3537 7.49418 12.3537C8.04924 12.3537 7.94641 12.3537 8.84738 12.3537C9.33066 12.3537 9.72608 11.9582 9.72608 11.475C9.72608 10.9917 9.33066 10.608 8.84738 10.608H7.96867C7.81448 10.608 7.6982 10.6135 7.57325 10.5025C7.41745 10.3662 7.24817 10.1961 7.08997 10.0954C6.21174 9.47547 4.94174 9.32497 3.88263 9.87836C3.6576 9.99593 3.51654 10.2291 3.51654 10.483V14.9967C9.10513 15.0042 8.59378 14.9966 8.62727 14.9967C9.56606 14.9967 10.449 14.6312 11.1128 13.967L13.6288 11.451C13.972 11.1077 13.972 10.5634 13.6288 10.2201Z" fill="#448D2F"/>
</g>
<defs>
<clipPath id="clip0">
<rect width="15" height="15" fill="white"/>
</clipPath>
</defs>
</svg>
